{
    "NameRegistry": "KT1ViVPYn5cPvCw5hxEwqRRPxmKLhi2McEFD",
    "NameRegistry.SetChildRecord": "KT19Srg8msHBS2kmpBZE8Wh8965hJNYRyFTC",
    "NameRegistry.UpdateRecord": "KT1E7m8DeS2HNQqCbaPQ4VhJrrGuQwTFXo4D",
    "NameRegistry.ClaimReverseRecord": "KT19m2uhka1zz7um3MMES4ABFXUEhmeG4eBe",
    "NameRegistry.UpdateReverseRecord": "KT1VRd7bjRceirg4Sm6xq1LmDmrJ3XZos5zk",
    "NameRegistry.CheckAddress": "KT1UwPGz2gmgHUz1ADdtqHVNgpR6NkXNhaop",
    "TLDRegistrar:tez": "KT1Fn2GG1SmfcQ8yLpJy3F7b5WxBdwUieto4",
    "TLDRegistrar.Commit:tez": "KT1FPz5dpfDtfF2FFjWyaRkULFGEX2wKdhWt",
    "TLDRegistrar.Buy:tez": "KT1AgxTaJ9gzWTVW2Q3zS5ZMfCP2wFSZEYWj",
    "TLDRegistrar.Renew:tez": "KT1LJyM95NzX8bYVv1fqvr7bnUPqm1nAEE7P",
    "TLDRegistrar.Bid:tez": "KT1RowjSXQVvuqZ2kqCzW6WQHaFq8M4mRRme",
    "TLDRegistrar.Withdraw:tez": "KT1EFpXnkda3HNi6r8CxwQb3BP9X5XqiyPjp",
    "TLDRegistrar.Settle:tez": "KT1W7jiJpSYSAQjYLksVaBsZTZQn95bCWg5a",
    "admin_multisig": "KT1Qy19AAdwa1sUTgQgEyPD3aFsGDzHqnZC4"
}