{
    "NameRegistry": "KT1PfBfkfUuvQRN8zuCAyp5MHjNrQqgevS9p",
    "NameRegistry.SetChildRecord": "KT1UG9DUYqtCF7XUqjH4QNGF2naoh7D1mscR",
    "NameRegistry.UpdateRecord": "KT1GZQLAbp9ekSHutKzaoo6yW5AofhYPRQ3q",
    "NameRegistry.ClaimReverseRecord": "KT1GJFHpra47WtwZH9uVsjwLPqgfL7LDQJhp",
    "NameRegistry.UpdateReverseRecord": "KT1X21jVp6ooHAkPCj3zvCWyNoqQ312dPFid",
    "NameRegistry.CheckAddress": "KT1PCx2zUqbaCtg8UcyHn31cMD9yaMHLvL6N",
    "TLDRegistrar:flo": "KT1Sq8tAWev1X1XfGK5kQJF4KK2HY9KMzGWG",
    "TLDRegistrar.Commit:flo": "KT1GTSgwuuB5c2ceGhqhTk4nedZznXYFzh1J",
    "TLDRegistrar.Buy:flo": "KT1E8XRnTzrF49Z33wuB5WzEurPGrN1ASb1w",
    "TLDRegistrar.Renew:flo": "KT1DFMXRc57XmK1YCZnYtYM7ZZCZ1CTCF7Q3",
    "TLDRegistrar.Bid:flo": "KT1W89CnCQxAwaZRnRefyAnBU7rUBP8s6fez",
    "TLDRegistrar.Withdraw:flo": "KT1AheQhiqZRW3SGX7XiRJZgZzGfNTQNV4nQ",
    "TLDRegistrar.Settle:flo": "KT1SmSRa18zpw5G514LJBkZm8ynAxrKpp5Tg",
    "TLDRegistrar:a1": "KT1KBfYnuEmbHkP9sBp9KTDT7y5c9PGsJiMr",
    "TLDRegistrar.Commit:a1": "KT1JP6eYx6Z53SW8TCrKZCcZno61CJUjWvWp",
    "TLDRegistrar.Buy:a1": "KT1NJbBbczKYNF3CWn9pXwLjhSg99jUG2Fjd",
    "TLDRegistrar.Renew:a1": "KT1FPh3iejT98uTsxH1fSz3WPGnMmMjLpwDp",
    "TLDRegistrar.Bid:a1": "KT1NyigaEvn3Xpmnp567H7De1hqaTAo9drNh",
    "TLDRegistrar.Withdraw:a1": "KT1VbTTGzABsZez3YHmZo2NnAmjZf6bfddwJ",
    "TLDRegistrar.Settle:a1": "KT1PZfDZ5JiTmxKuxL9hteXafyjUY6evrFwX",
    "TLDRegistrar:a2": "KT1GPnSWmjwHD6Z1wgA2dt7KZ1nfMqB4WkJQ",
    "TLDRegistrar.Commit:a2": "KT1XiyeQzUWPpo1x8AYGQZA4wEDhVAfkKg99",
    "TLDRegistrar.Buy:a2": "KT1AgkojjS56AF4n1Kg8ueWyUK1uNWncjRrE",
    "TLDRegistrar.Renew:a2": "KT1WQ4S1UamDy1g5UBLvozSgprStrq6i3xrx",
    "TLDRegistrar.Bid:a2": "KT1RfaxpqJ2rGD3umeS85N4e7PGGibA5Qcgg",
    "TLDRegistrar.Withdraw:a2": "KT1FQjUog81bN1ixL6U3X5EWzrD87qkCic3y",
    "TLDRegistrar.Settle:a2": "KT1LdvFBCftEZ1fkwBseXkxx8XfAiCmqtRuE",
    "TLDRegistrar:a3": "KT1PLubQDcezE8Qfg9bC8HEpnZvnJ5kTjQfz",
    "TLDRegistrar.Commit:a3": "KT1MiAUbR16Sz3vWpp8HYdiiybGeLvzH6inP",
    "TLDRegistrar.Buy:a3": "KT18p1t2fyJTDALqzimiMQe7gAGHeFbc9PRt",
    "TLDRegistrar.Renew:a3": "KT1Cx3iRQ2xZsDJ62FZ6hd4B8o9g4jq93N3J",
    "TLDRegistrar.Bid:a3": "KT19WncaVpfnNTFnKDKJuztXWjvVjo198wKm",
    "TLDRegistrar.Withdraw:a3": "KT19DyPDFYUbJa3EHKv8jz5Wsa36QWNVWY3k",
    "TLDRegistrar.Settle:a3": "KT1MHCnvYGxLcqFyDFbdAXSGZUKrbREWQbdV"
}